…
#2. Which manufacturer has the most models in this data set? Which model has the most variations? ans - the
#manufacturer that has the most model are the Dodge while the most variations for model are the caravan2wd

mnftr <- mpg_data %>% group_by(manufacturer,model) %>% count()
mnftr

## # A tibble: 38 x 3
## # Groups: manufacturer, model [38]
## manufacturer model n
## <chr> <chr> <int>
## 1 audi a4 7
## 2 audi a4 quattro 8
## 3 audi a6 quattro 3
## 4 chevrolet c1500 suburban 2wd 5
## 5 chevrolet corvette 5
## 6 chevrolet k1500 tahoe 4wd 4
## 7 chevrolet malibu 5
## 8 dodge caravan 2wd 11
## 9 dodge dakota pickup 4wd 9
## 10 dodge durango 4wd 7
## # ... with 28 more rows
…
ggplot(datab, aes(model, manufacturer)) + geom_point()

#b. For you, is it useful? If not, how could you modify the data to make it more
#informative? 
#ans - The data is already organised, but it can be improved to look more 
#information by using a legend to differentiate the data from scatter plot.

#4. Using the pipe (%>%), group the model and get the number of cars per model. 
#Show codes and its result.

car_mod <- mpg_data %>% group_by(model) %>% count()
car_mod

# A tibble: 38 × 2
# Groups:   model [38]
#model                  n
#<chr>              <int>
  #1 4runner 4wd            6
#2 a4                     7
#3 a4 quattro             8
#4 a6 quattro             3
#5 altima                 6
#6 c1500 suburban 2wd     5
#7 camry                  7
#8 camry solara           7
#9 caravan 2wd           11
#10 civic                  9
# … with 28 more rows
…
